module audi

go 1.18

require (
	github.com/golang/protobuf v1.5.2
	github.com/grpc-ecosystem/grpc-gateway v1.16.0
	google.golang.org/api v0.76.0
	google.golang.org/genproto v0.0.0-20220414192740-2d67ff6cf2b4
	google.golang.org/grpc v1.46.0
	google.golang.org/protobuf v1.28.0
)

require (
	cloud.google.com/go/compute v1.6.0 // indirect
	github.com/golang/groupcache v0.0.0-20200121045136-8c9f03a8e57e // indirect
	github.com/googleapis/gax-go/v2 v2.3.0 // indirect
	go.opencensus.io v0.23.0 // indirect
	golang.org/x/net v0.0.0-20220412020605-290c469a71a5 // indirect
	golang.org/x/oauth2 v0.0.0-20220411215720-9780585627b5 // indirect
	golang.org/x/sys v0.0.0-20220412211240-33da011f77ad // indirect
	golang.org/x/text v0.3.7 // indirect
	google.golang.org/appengine v1.6.7 // indirect
)
